TextAsset Base
	string m_Name = "AchieveMissionType"
	string m_Script = "[
	{"Id": 101, "Title": 80101, "Desc": 90101, "Hunt": 0, "Shortcut": 1},
	{"Id": 102, "Title": 80102, "Desc": 90102, "Hunt": 0, "Shortcut": 1},
	{"Id": 201, "Title": 80201, "Desc": 90201, "Hunt": 0, "Shortcut": 1},
	{"Id": 202, "Title": 80202, "Desc": 90202, "Hunt": 0, "Shortcut": 1},
	{"Id": 301, "Title": 80301, "Desc": 90301, "Hunt": 0, "Shortcut": 2},
	{"Id": 302, "Title": 80302, "Desc": 90302, "Hunt": 0, "Shortcut": 2},
	{"Id": 303, "Title": 80303, "Desc": 90303, "Hunt": 0, "Shortcut": 3},
	{"Id": 401, "Title": 80401, "Desc": 90401, "Hunt": 0, "Shortcut": 4},
	{"Id": 402, "Title": 80402, "Desc": 90402, "Hunt": 0, "Shortcut": 4},
	{"Id": 403, "Title": 80403, "Desc": 90403, "Hunt": 0, "Shortcut": 4},
	{"Id": 404, "Title": 80404, "Desc": 90404, "Hunt": 0, "Shortcut": 5},
	{"Id": 501, "Title": 80501, "Desc": 90501, "Hunt": 7, "Shortcut": 23},
	{"Id": 502, "Title": 80502, "Desc": 90502, "Hunt": 7, "Shortcut": 5},
	{"Id": 601, "Title": 80601, "Desc": 90601, "Hunt": 0, "Shortcut": 4},
	{"Id": 602, "Title": 80602, "Desc": 90602, "Hunt": 7, "Shortcut": 4},
	{"Id": 603, "Title": 80603, "Desc": 90603, "Hunt": 5, "Shortcut": 4},
	{"Id": 702, "Title": 80702, "Desc": 90702, "Hunt": 0, "Shortcut": 7},
	{"Id": 703, "Title": 80703, "Desc": 90703, "Hunt": 0, "Shortcut": 7},
	{"Id": 704, "Title": 80704, "Desc": 90704, "Hunt": 0, "Shortcut": 7},
	{"Id": 705, "Title": 80705, "Desc": 90705, "Hunt": 0, "Shortcut": 7},
	{"Id": 801, "Title": 80801, "Desc": 90801, "Hunt": 42, "Shortcut": 11},
	{"Id": 802, "Title": 80802, "Desc": 90802, "Hunt": 42, "Shortcut": 11},
	{"Id": 901, "Title": 80901, "Desc": 90901, "Hunt": 0, "Shortcut": 5},
	{"Id": 1001, "Title": 81001, "Desc": 91001, "Hunt": 0, "Shortcut": 9},
	{"Id": 1002, "Title": 81002, "Desc": 91002, "Hunt": 42, "Shortcut": 18},
	{"Id": 604, "Title": 80604, "Desc": 90604, "Hunt": 0, "Shortcut": 6},
	{"Id": 605, "Title": 80605, "Desc": 90605, "Hunt": 7, "Shortcut": 4},
	{"Id": 606, "Title": 80606, "Desc": 90606, "Hunt": 0, "Shortcut": 4},
	{"Id": 607, "Title": 80607, "Desc": 90607, "Hunt": 0, "Shortcut": 10},
	{"Id": 405, "Title": 80405, "Desc": 90405, "Hunt": 0, "Shortcut": 4}
]"
