TextAsset Base
	string m_Name = "CharShowAniDefault"
	string m_Script = "[
	{"Id": 1, "Appear": "Idle", "Idle": "Idle", "Move": "Idle", "Return": "Idle", "AtkStart": "Idle", "AtkEnd": "Idle", "Damage": "Idle", "Dead": "Idle", "Win": "Idle", "Lose": "Idle", "Escape": "Idle"}
]"
