TextAsset Base
	string m_Name = "DayDungeon"
	string m_Script = "[
	{"Id": 1, "DungeonType": 1, "Name": 170001, "Stage": 1, "ReqTicket": 1, "TryLimit": 3, "BossChar": 2003, "Bg": "UI-#/AttrDungeon/Bg/Bg_Btl_AttrDungeon_Fire", "BtlSet": 2018, "AttrFirstRwd": 4800, "AttrRepeatRwd": 4100, "OtherExp": 455, "OtherGold": 34, "TodayExp": 910, "TodayGold": 68},
	{"Id": 2, "DungeonType": 1, "Name": 170002, "Stage": 2, "ReqTicket": 1, "TryLimit": 3, "BossChar": 2005, "Bg": "UI-#/AttrDungeon/Bg/Bg_Btl_AttrDungeon_Fire", "BtlSet": 2018, "AttrFirstRwd": 4800, "AttrRepeatRwd": 4100, "OtherExp": 1332, "OtherGold": 83, "TodayExp": 2664, "TodayGold": 166},
	{"Id": 3, "DungeonType": 1, "Name": 170003, "Stage": 3, "ReqTicket": 2, "TryLimit": 3, "BossChar": 2017, "Bg": "UI-#/AttrDungeon/Bg/Bg_Btl_AttrDungeon_Fire", "BtlSet": 2019, "AttrFirstRwd": 4801, "AttrRepeatRwd": 4101, "OtherExp": 1871, "OtherGold": 105, "TodayExp": 3742, "TodayGold": 210},
	{"Id": 4, "DungeonType": 1, "Name": 170004, "Stage": 4, "ReqTicket": 2, "TryLimit": 3, "BossChar": 2008, "Bg": "UI-#/AttrDungeon/Bg/Bg_Btl_AttrDungeon_Fire", "BtlSet": 2019, "AttrFirstRwd": 4801, "AttrRepeatRwd": 4101, "OtherExp": 2492, "OtherGold": 127, "TodayExp": 4984, "TodayGold": 254},
	{"Id": 5, "DungeonType": 1, "Name": 170005, "Stage": 5, "ReqTicket": 3, "TryLimit": 3, "BossChar": 2010, "Bg": "UI-#/AttrDungeon/Bg/Bg_Btl_AttrDungeon_Fire", "BtlSet": 2020, "AttrFirstRwd": 4802, "AttrRepeatRwd": 4102, "OtherExp": 3205, "OtherGold": 139, "TodayExp": 6410, "TodayGold": 278},
	{"Id": 6, "DungeonType": 1, "Name": 170006, "Stage": 6, "ReqTicket": 3, "TryLimit": 3, "BossChar": 2018, "Bg": "UI-#/AttrDungeon/Bg/Bg_Btl_AttrDungeon_Fire", "BtlSet": 2020, "AttrFirstRwd": 4802, "AttrRepeatRwd": 4102, "OtherExp": 4026, "OtherGold": 151, "TodayExp": 8052, "TodayGold": 302},
	{"Id": 7, "DungeonType": 1, "Name": 170007, "Stage": 7, "ReqTicket": 4, "TryLimit": 3, "BossChar": 2036, "Bg": "UI-#/AttrDungeon/Bg/Bg_Btl_AttrDungeon_Fire", "BtlSet": 2021, "AttrFirstRwd": 4803, "AttrRepeatRwd": 4103, "OtherExp": 6000, "OtherGold": 176, "TodayExp": 12000, "TodayGold": 352},
	{"Id": 8, "DungeonType": 1, "Name": 170008, "Stage": 8, "ReqTicket": 4, "TryLimit": 3, "BossChar": 2032, "Bg": "UI-#/AttrDungeon/Bg/Bg_Btl_AttrDungeon_Fire", "BtlSet": 2021, "AttrFirstRwd": 4803, "AttrRepeatRwd": 4103, "OtherExp": 6655, "OtherGold": 202, "TodayExp": 13310, "TodayGold": 404},
	{"Id": 9, "DungeonType": 1, "Name": 170009, "Stage": 9, "ReqTicket": 5, "TryLimit": 3, "BossChar": 2041, "Bg": "UI-#/AttrDungeon/Bg/Bg_Btl_AttrDungeon_Fire", "BtlSet": 2022, "AttrFirstRwd": 4804, "AttrRepeatRwd": 4104, "OtherExp": 7343, "OtherGold": 215, "TodayExp": 14686, "TodayGold": 430},
	{"Id": 10, "DungeonType": 1, "Name": 170010, "Stage": 10, "ReqTicket": 5, "TryLimit": 3, "BossChar": 2009, "Bg": "UI-#/AttrDungeon/Bg/Bg_Btl_AttrDungeon_Fire", "BtlSet": 2023, "AttrFirstRwd": 4804, "AttrRepeatRwd": 4104, "OtherExp": 8823, "OtherGold": 229, "TodayExp": 17646, "TodayGold": 458},
	{"Id": 11, "DungeonType": 2, "Name": 170011, "Stage": 1, "ReqTicket": 1, "TryLimit": 3, "BossChar": 2003, "Bg": "UI-#/AttrDungeon/Bg/Bg_Btl_AttrDungeon_Forest", "BtlSet": 2000, "AttrFirstRwd": 4800, "AttrRepeatRwd": 4500, "OtherExp": 455, "OtherGold": 34, "TodayExp": 910, "TodayGold": 68},
	{"Id": 12, "DungeonType": 2, "Name": 170012, "Stage": 2, "ReqTicket": 1, "TryLimit": 3, "BossChar": 2005, "Bg": "UI-#/AttrDungeon/Bg/Bg_Btl_AttrDungeon_Forest", "BtlSet": 2000, "AttrFirstRwd": 4800, "AttrRepeatRwd": 4500, "OtherExp": 1332, "OtherGold": 83, "TodayExp": 2664, "TodayGold": 166},
	{"Id": 13, "DungeonType": 2, "Name": 170013, "Stage": 3, "ReqTicket": 2, "TryLimit": 3, "BossChar": 2008, "Bg": "UI-#/AttrDungeon/Bg/Bg_Btl_AttrDungeon_Forest", "BtlSet": 2001, "AttrFirstRwd": 4801, "AttrRepeatRwd": 4501, "OtherExp": 1871, "OtherGold": 105, "TodayExp": 3742, "TodayGold": 210},
	{"Id": 14, "DungeonType": 2, "Name": 170014, "Stage": 4, "ReqTicket": 2, "TryLimit": 3, "BossChar": 2009, "Bg": "UI-#/AttrDungeon/Bg/Bg_Btl_AttrDungeon_Forest", "BtlSet": 2001, "AttrFirstRwd": 4801, "AttrRepeatRwd": 4501, "OtherExp": 2492, "OtherGold": 127, "TodayExp": 4984, "TodayGold": 254},
	{"Id": 15, "DungeonType": 2, "Name": 170015, "Stage": 5, "ReqTicket": 3, "TryLimit": 3, "BossChar": 2010, "Bg": "UI-#/AttrDungeon/Bg/Bg_Btl_AttrDungeon_Forest", "BtlSet": 2002, "AttrFirstRwd": 4802, "AttrRepeatRwd": 4502, "OtherExp": 3205, "OtherGold": 139, "TodayExp": 6410, "TodayGold": 278},
	{"Id": 16, "DungeonType": 2, "Name": 170016, "Stage": 6, "ReqTicket": 3, "TryLimit": 3, "BossChar": 2014, "Bg": "UI-#/AttrDungeon/Bg/Bg_Btl_AttrDungeon_Forest", "BtlSet": 2002, "AttrFirstRwd": 4802, "AttrRepeatRwd": 4502, "OtherExp": 4026, "OtherGold": 151, "TodayExp": 8052, "TodayGold": 302},
	{"Id": 17, "DungeonType": 2, "Name": 170017, "Stage": 7, "ReqTicket": 4, "TryLimit": 3, "BossChar": 2017, "Bg": "UI-#/AttrDungeon/Bg/Bg_Btl_AttrDungeon_Forest", "BtlSet": 2003, "AttrFirstRwd": 4803, "AttrRepeatRwd": 4503, "OtherExp": 6000, "OtherGold": 176, "TodayExp": 12000, "TodayGold": 352},
	{"Id": 18, "DungeonType": 2, "Name": 170018, "Stage": 8, "ReqTicket": 4, "TryLimit": 3, "BossChar": 2018, "Bg": "UI-#/AttrDungeon/Bg/Bg_Btl_AttrDungeon_Forest", "BtlSet": 2003, "AttrFirstRwd": 4803, "AttrRepeatRwd": 4503, "OtherExp": 6655, "OtherGold": 202, "TodayExp": 13310, "TodayGold": 404},
	{"Id": 19, "DungeonType": 2, "Name": 170019, "Stage": 9, "ReqTicket": 5, "TryLimit": 3, "BossChar": 2025, "Bg": "UI-#/AttrDungeon/Bg/Bg_Btl_AttrDungeon_Forest", "BtlSet": 2004, "AttrFirstRwd": 4804, "AttrRepeatRwd": 4504, "OtherExp": 7343, "OtherGold": 215, "TodayExp": 14686, "TodayGold": 430},
	{"Id": 20, "DungeonType": 2, "Name": 170020, "Stage": 10, "ReqTicket": 5, "TryLimit": 3, "BossChar": 2030, "Bg": "UI-#/AttrDungeon/Bg/Bg_Btl_AttrDungeon_Forest", "BtlSet": 2005, "AttrFirstRwd": 4804, "AttrRepeatRwd": 4504, "OtherExp": 8823, "OtherGold": 229, "TodayExp": 17646, "TodayGold": 458},
	{"Id": 21, "DungeonType": 3, "Name": 170021, "Stage": 1, "ReqTicket": 1, "TryLimit": 3, "BossChar": 2000, "Bg": "UI-#/AttrDungeon/Bg/Bg_Btl_AttrDungeon_Water", "BtlSet": 2024, "AttrFirstRwd": 4800, "AttrRepeatRwd": 4200, "OtherExp": 455, "OtherGold": 34, "TodayExp": 910, "TodayGold": 68},
	{"Id": 22, "DungeonType": 3, "Name": 170022, "Stage": 2, "ReqTicket": 1, "TryLimit": 3, "BossChar": 2001, "Bg": "UI-#/AttrDungeon/Bg/Bg_Btl_AttrDungeon_Water", "BtlSet": 2024, "AttrFirstRwd": 4800, "AttrRepeatRwd": 4200, "OtherExp": 1332, "OtherGold": 83, "TodayExp": 2664, "TodayGold": 166},
	{"Id": 23, "DungeonType": 3, "Name": 170023, "Stage": 3, "ReqTicket": 2, "TryLimit": 3, "BossChar": 2011, "Bg": "UI-#/AttrDungeon/Bg/Bg_Btl_AttrDungeon_Water", "BtlSet": 2025, "AttrFirstRwd": 4801, "AttrRepeatRwd": 4201, "OtherExp": 1871, "OtherGold": 105, "TodayExp": 3742, "TodayGold": 210},
	{"Id": 24, "DungeonType": 3, "Name": 170024, "Stage": 4, "ReqTicket": 2, "TryLimit": 3, "BossChar": 2012, "Bg": "UI-#/AttrDungeon/Bg/Bg_Btl_AttrDungeon_Water", "BtlSet": 2025, "AttrFirstRwd": 4801, "AttrRepeatRwd": 4201, "OtherExp": 2492, "OtherGold": 127, "TodayExp": 4984, "TodayGold": 254},
	{"Id": 25, "DungeonType": 3, "Name": 170025, "Stage": 5, "ReqTicket": 3, "TryLimit": 3, "BossChar": 2013, "Bg": "UI-#/AttrDungeon/Bg/Bg_Btl_AttrDungeon_Water", "BtlSet": 2026, "AttrFirstRwd": 4802, "AttrRepeatRwd": 4202, "OtherExp": 3205, "OtherGold": 139, "TodayExp": 6410, "TodayGold": 278},
	{"Id": 26, "DungeonType": 3, "Name": 170026, "Stage": 6, "ReqTicket": 3, "TryLimit": 3, "BossChar": 2022, "Bg": "UI-#/AttrDungeon/Bg/Bg_Btl_AttrDungeon_Water", "BtlSet": 2026, "AttrFirstRwd": 4802, "AttrRepeatRwd": 4202, "OtherExp": 4026, "OtherGold": 151, "TodayExp": 8052, "TodayGold": 302},
	{"Id": 27, "DungeonType": 3, "Name": 170027, "Stage": 7, "ReqTicket": 4, "TryLimit": 3, "BossChar": 2024, "Bg": "UI-#/AttrDungeon/Bg/Bg_Btl_AttrDungeon_Water", "BtlSet": 2027, "AttrFirstRwd": 4803, "AttrRepeatRwd": 4203, "OtherExp": 6000, "OtherGold": 176, "TodayExp": 12000, "TodayGold": 352},
	{"Id": 28, "DungeonType": 3, "Name": 170028, "Stage": 8, "ReqTicket": 4, "TryLimit": 3, "BossChar": 2025, "Bg": "UI-#/AttrDungeon/Bg/Bg_Btl_AttrDungeon_Water", "BtlSet": 2027, "AttrFirstRwd": 4803, "AttrRepeatRwd": 4203, "OtherExp": 6655, "OtherGold": 202, "TodayExp": 13310, "TodayGold": 404},
	{"Id": 29, "DungeonType": 3, "Name": 170029, "Stage": 9, "ReqTicket": 5, "TryLimit": 3, "BossChar": 2028, "Bg": "UI-#/AttrDungeon/Bg/Bg_Btl_AttrDungeon_Water", "BtlSet": 2028, "AttrFirstRwd": 4804, "AttrRepeatRwd": 4204, "OtherExp": 7343, "OtherGold": 215, "TodayExp": 14686, "TodayGold": 430},
	{"Id": 30, "DungeonType": 3, "Name": 170030, "Stage": 10, "ReqTicket": 5, "TryLimit": 3, "BossChar": 2033, "Bg": "UI-#/AttrDungeon/Bg/Bg_Btl_AttrDungeon_Water", "BtlSet": 2029, "AttrFirstRwd": 4804, "AttrRepeatRwd": 4204, "OtherExp": 8823, "OtherGold": 229, "TodayExp": 17646, "TodayGold": 458},
	{"Id": 31, "DungeonType": 4, "Name": 170031, "Stage": 1, "ReqTicket": 1, "TryLimit": 3, "BossChar": 2001, "Bg": "UI-#/AttrDungeon/Bg/Bg_Btl_AttrDungeon_Fire", "BtlSet": 2006, "AttrFirstRwd": 4800, "AttrRepeatRwd": 4600, "OtherExp": 455, "OtherGold": 34, "TodayExp": 910, "TodayGold": 68},
	{"Id": 32, "DungeonType": 4, "Name": 170032, "Stage": 2, "ReqTicket": 1, "TryLimit": 3, "BossChar": 2006, "Bg": "UI-#/AttrDungeon/Bg/Bg_Btl_AttrDungeon_Fire", "BtlSet": 2006, "AttrFirstRwd": 4800, "AttrRepeatRwd": 4600, "OtherExp": 1332, "OtherGold": 83, "TodayExp": 2664, "TodayGold": 166},
	{"Id": 33, "DungeonType": 4, "Name": 170033, "Stage": 3, "ReqTicket": 2, "TryLimit": 3, "BossChar": 2007, "Bg": "UI-#/AttrDungeon/Bg/Bg_Btl_AttrDungeon_Fire", "BtlSet": 2007, "AttrFirstRwd": 4801, "AttrRepeatRwd": 4601, "OtherExp": 1871, "OtherGold": 105, "TodayExp": 3742, "TodayGold": 210},
	{"Id": 34, "DungeonType": 4, "Name": 170034, "Stage": 4, "ReqTicket": 2, "TryLimit": 3, "BossChar": 2011, "Bg": "UI-#/AttrDungeon/Bg/Bg_Btl_AttrDungeon_Fire", "BtlSet": 2007, "AttrFirstRwd": 4801, "AttrRepeatRwd": 4601, "OtherExp": 2492, "OtherGold": 127, "TodayExp": 4984, "TodayGold": 254},
	{"Id": 35, "DungeonType": 4, "Name": 170035, "Stage": 5, "ReqTicket": 3, "TryLimit": 3, "BossChar": 2013, "Bg": "UI-#/AttrDungeon/Bg/Bg_Btl_AttrDungeon_Fire", "BtlSet": 2008, "AttrFirstRwd": 4802, "AttrRepeatRwd": 4602, "OtherExp": 3205, "OtherGold": 139, "TodayExp": 6410, "TodayGold": 278},
	{"Id": 36, "DungeonType": 4, "Name": 170036, "Stage": 6, "ReqTicket": 3, "TryLimit": 3, "BossChar": 2019, "Bg": "UI-#/AttrDungeon/Bg/Bg_Btl_AttrDungeon_Fire", "BtlSet": 2008, "AttrFirstRwd": 4802, "AttrRepeatRwd": 4602, "OtherExp": 4026, "OtherGold": 151, "TodayExp": 8052, "TodayGold": 302},
	{"Id": 37, "DungeonType": 4, "Name": 170037, "Stage": 7, "ReqTicket": 4, "TryLimit": 3, "BossChar": 2020, "Bg": "UI-#/AttrDungeon/Bg/Bg_Btl_AttrDungeon_Fire", "BtlSet": 2009, "AttrFirstRwd": 4803, "AttrRepeatRwd": 4603, "OtherExp": 6000, "OtherGold": 176, "TodayExp": 12000, "TodayGold": 352},
	{"Id": 38, "DungeonType": 4, "Name": 170038, "Stage": 8, "ReqTicket": 4, "TryLimit": 3, "BossChar": 2022, "Bg": "UI-#/AttrDungeon/Bg/Bg_Btl_AttrDungeon_Fire", "BtlSet": 2009, "AttrFirstRwd": 4803, "AttrRepeatRwd": 4603, "OtherExp": 6655, "OtherGold": 202, "TodayExp": 13310, "TodayGold": 404},
	{"Id": 39, "DungeonType": 4, "Name": 170039, "Stage": 9, "ReqTicket": 5, "TryLimit": 3, "BossChar": 2023, "Bg": "UI-#/AttrDungeon/Bg/Bg_Btl_AttrDungeon_Fire", "BtlSet": 2010, "AttrFirstRwd": 4804, "AttrRepeatRwd": 4604, "OtherExp": 7343, "OtherGold": 215, "TodayExp": 14686, "TodayGold": 430},
	{"Id": 40, "DungeonType": 4, "Name": 170040, "Stage": 10, "ReqTicket": 5, "TryLimit": 3, "BossChar": 2024, "Bg": "UI-#/AttrDungeon/Bg/Bg_Btl_AttrDungeon_Fire", "BtlSet": 2011, "AttrFirstRwd": 4804, "AttrRepeatRwd": 4604, "OtherExp": 8823, "OtherGold": 229, "TodayExp": 17646, "TodayGold": 458},
	{"Id": 41, "DungeonType": 5, "Name": 170041, "Stage": 1, "ReqTicket": 1, "TryLimit": 3, "BossChar": 2002, "Bg": "UI-#/AttrDungeon/Bg/Bg_Btl_AttrDungeon_Forest", "BtlSet": 2030, "AttrFirstRwd": 4800, "AttrRepeatRwd": 4300, "OtherExp": 455, "OtherGold": 34, "TodayExp": 910, "TodayGold": 68},
	{"Id": 42, "DungeonType": 5, "Name": 170042, "Stage": 2, "ReqTicket": 1, "TryLimit": 3, "BossChar": 2004, "Bg": "UI-#/AttrDungeon/Bg/Bg_Btl_AttrDungeon_Forest", "BtlSet": 2030, "AttrFirstRwd": 4800, "AttrRepeatRwd": 4300, "OtherExp": 1332, "OtherGold": 83, "TodayExp": 2664, "TodayGold": 166},
	{"Id": 43, "DungeonType": 5, "Name": 170043, "Stage": 3, "ReqTicket": 2, "TryLimit": 3, "BossChar": 2016, "Bg": "UI-#/AttrDungeon/Bg/Bg_Btl_AttrDungeon_Forest", "BtlSet": 2031, "AttrFirstRwd": 4801, "AttrRepeatRwd": 4301, "OtherExp": 1871, "OtherGold": 105, "TodayExp": 3742, "TodayGold": 210},
	{"Id": 44, "DungeonType": 5, "Name": 170044, "Stage": 4, "ReqTicket": 2, "TryLimit": 3, "BossChar": 2019, "Bg": "UI-#/AttrDungeon/Bg/Bg_Btl_AttrDungeon_Forest", "BtlSet": 2031, "AttrFirstRwd": 4801, "AttrRepeatRwd": 4301, "OtherExp": 2492, "OtherGold": 127, "TodayExp": 4984, "TodayGold": 254},
	{"Id": 45, "DungeonType": 5, "Name": 170045, "Stage": 5, "ReqTicket": 3, "TryLimit": 3, "BossChar": 2020, "Bg": "UI-#/AttrDungeon/Bg/Bg_Btl_AttrDungeon_Forest", "BtlSet": 2032, "AttrFirstRwd": 4802, "AttrRepeatRwd": 4302, "OtherExp": 3205, "OtherGold": 139, "TodayExp": 6410, "TodayGold": 278},
	{"Id": 46, "DungeonType": 5, "Name": 170046, "Stage": 6, "ReqTicket": 3, "TryLimit": 3, "BossChar": 2021, "Bg": "UI-#/AttrDungeon/Bg/Bg_Btl_AttrDungeon_Forest", "BtlSet": 2032, "AttrFirstRwd": 4802, "AttrRepeatRwd": 4302, "OtherExp": 4026, "OtherGold": 151, "TodayExp": 8052, "TodayGold": 302},
	{"Id": 47, "DungeonType": 5, "Name": 170047, "Stage": 7, "ReqTicket": 4, "TryLimit": 3, "BossChar": 2023, "Bg": "UI-#/AttrDungeon/Bg/Bg_Btl_AttrDungeon_Forest", "BtlSet": 2033, "AttrFirstRwd": 4803, "AttrRepeatRwd": 4303, "OtherExp": 6000, "OtherGold": 176, "TodayExp": 12000, "TodayGold": 352},
	{"Id": 48, "DungeonType": 5, "Name": 170048, "Stage": 8, "ReqTicket": 4, "TryLimit": 3, "BossChar": 2026, "Bg": "UI-#/AttrDungeon/Bg/Bg_Btl_AttrDungeon_Forest", "BtlSet": 2033, "AttrFirstRwd": 4803, "AttrRepeatRwd": 4303, "OtherExp": 6655, "OtherGold": 202, "TodayExp": 13310, "TodayGold": 404},
	{"Id": 49, "DungeonType": 5, "Name": 170049, "Stage": 9, "ReqTicket": 5, "TryLimit": 3, "BossChar": 2035, "Bg": "UI-#/AttrDungeon/Bg/Bg_Btl_AttrDungeon_Forest", "BtlSet": 2034, "AttrFirstRwd": 4804, "AttrRepeatRwd": 4304, "OtherExp": 7343, "OtherGold": 215, "TodayExp": 14686, "TodayGold": 430},
	{"Id": 50, "DungeonType": 5, "Name": 170050, "Stage": 10, "ReqTicket": 5, "TryLimit": 3, "BossChar": 2016, "Bg": "UI-#/AttrDungeon/Bg/Bg_Btl_AttrDungeon_Forest", "BtlSet": 2035, "AttrFirstRwd": 4804, "AttrRepeatRwd": 4304, "OtherExp": 8823, "OtherGold": 229, "TodayExp": 17646, "TodayGold": 458},
	{"Id": 51, "DungeonType": 6, "Name": 170051, "Stage": 1, "ReqTicket": 1, "TryLimit": 3, "BossChar": 2000, "Bg": "UI-#/AttrDungeon/Bg/Bg_Btl_AttrDungeon_Water", "BtlSet": 2012, "AttrFirstRwd": 4800, "AttrRepeatRwd": 4700, "OtherExp": 455, "OtherGold": 34, "TodayExp": 910, "TodayGold": 68},
	{"Id": 52, "DungeonType": 6, "Name": 170052, "Stage": 2, "ReqTicket": 1, "TryLimit": 3, "BossChar": 2002, "Bg": "UI-#/AttrDungeon/Bg/Bg_Btl_AttrDungeon_Water", "BtlSet": 2012, "AttrFirstRwd": 4800, "AttrRepeatRwd": 4700, "OtherExp": 1332, "OtherGold": 83, "TodayExp": 2664, "TodayGold": 166},
	{"Id": 53, "DungeonType": 6, "Name": 170053, "Stage": 3, "ReqTicket": 2, "TryLimit": 3, "BossChar": 2004, "Bg": "UI-#/AttrDungeon/Bg/Bg_Btl_AttrDungeon_Water", "BtlSet": 2013, "AttrFirstRwd": 4801, "AttrRepeatRwd": 4701, "OtherExp": 1871, "OtherGold": 105, "TodayExp": 3742, "TodayGold": 210},
	{"Id": 54, "DungeonType": 6, "Name": 170054, "Stage": 4, "ReqTicket": 2, "TryLimit": 3, "BossChar": 2012, "Bg": "UI-#/AttrDungeon/Bg/Bg_Btl_AttrDungeon_Water", "BtlSet": 2013, "AttrFirstRwd": 4801, "AttrRepeatRwd": 4701, "OtherExp": 2492, "OtherGold": 127, "TodayExp": 4984, "TodayGold": 254},
	{"Id": 55, "DungeonType": 6, "Name": 170055, "Stage": 5, "ReqTicket": 3, "TryLimit": 3, "BossChar": 2015, "Bg": "UI-#/AttrDungeon/Bg/Bg_Btl_AttrDungeon_Water", "BtlSet": 2014, "AttrFirstRwd": 4802, "AttrRepeatRwd": 4702, "OtherExp": 3205, "OtherGold": 139, "TodayExp": 6410, "TodayGold": 278},
	{"Id": 56, "DungeonType": 6, "Name": 170056, "Stage": 6, "ReqTicket": 3, "TryLimit": 3, "BossChar": 2016, "Bg": "UI-#/AttrDungeon/Bg/Bg_Btl_AttrDungeon_Water", "BtlSet": 2014, "AttrFirstRwd": 4802, "AttrRepeatRwd": 4702, "OtherExp": 4026, "OtherGold": 151, "TodayExp": 8052, "TodayGold": 302},
	{"Id": 57, "DungeonType": 6, "Name": 170057, "Stage": 7, "ReqTicket": 4, "TryLimit": 3, "BossChar": 2021, "Bg": "UI-#/AttrDungeon/Bg/Bg_Btl_AttrDungeon_Water", "BtlSet": 2015, "AttrFirstRwd": 4803, "AttrRepeatRwd": 4703, "OtherExp": 6000, "OtherGold": 176, "TodayExp": 12000, "TodayGold": 352},
	{"Id": 58, "DungeonType": 6, "Name": 170058, "Stage": 8, "ReqTicket": 4, "TryLimit": 3, "BossChar": 2026, "Bg": "UI-#/AttrDungeon/Bg/Bg_Btl_AttrDungeon_Water", "BtlSet": 2015, "AttrFirstRwd": 4803, "AttrRepeatRwd": 4703, "OtherExp": 6655, "OtherGold": 202, "TodayExp": 13310, "TodayGold": 404},
	{"Id": 59, "DungeonType": 6, "Name": 170059, "Stage": 9, "ReqTicket": 5, "TryLimit": 3, "BossChar": 2028, "Bg": "UI-#/AttrDungeon/Bg/Bg_Btl_AttrDungeon_Water", "BtlSet": 2016, "AttrFirstRwd": 4804, "AttrRepeatRwd": 4704, "OtherExp": 7343, "OtherGold": 215, "TodayExp": 14686, "TodayGold": 430},
	{"Id": 60, "DungeonType": 6, "Name": 170060, "Stage": 10, "ReqTicket": 5, "TryLimit": 3, "BossChar": 2033, "Bg": "UI-#/AttrDungeon/Bg/Bg_Btl_AttrDungeon_Water", "BtlSet": 2017, "AttrFirstRwd": 4804, "AttrRepeatRwd": 4704, "OtherExp": 8823, "OtherGold": 229, "TodayExp": 17646, "TodayGold": 458},
	{"Id": 61, "DungeonType": 7, "Name": 170061, "Stage": 1, "ReqTicket": 1, "TryLimit": 3, "BossChar": 2006, "Bg": "UI-#/AttrDungeon/Bg/Bg_Btl_AttrDungeon_Fire", "BtlSet": 2036, "AttrFirstRwd": 4800, "AttrRepeatRwd": 4400, "OtherExp": 455, "OtherGold": 34, "TodayExp": 910, "TodayGold": 68},
	{"Id": 62, "DungeonType": 7, "Name": 170062, "Stage": 2, "ReqTicket": 1, "TryLimit": 3, "BossChar": 2007, "Bg": "UI-#/AttrDungeon/Bg/Bg_Btl_AttrDungeon_Fire", "BtlSet": 2036, "AttrFirstRwd": 4800, "AttrRepeatRwd": 4400, "OtherExp": 1332, "OtherGold": 83, "TodayExp": 2664, "TodayGold": 166},
	{"Id": 63, "DungeonType": 7, "Name": 170063, "Stage": 3, "ReqTicket": 2, "TryLimit": 3, "BossChar": 2014, "Bg": "UI-#/AttrDungeon/Bg/Bg_Btl_AttrDungeon_Fire", "BtlSet": 2037, "AttrFirstRwd": 4801, "AttrRepeatRwd": 4401, "OtherExp": 1871, "OtherGold": 105, "TodayExp": 3742, "TodayGold": 210},
	{"Id": 64, "DungeonType": 7, "Name": 170064, "Stage": 4, "ReqTicket": 2, "TryLimit": 3, "BossChar": 2015, "Bg": "UI-#/AttrDungeon/Bg/Bg_Btl_AttrDungeon_Fire", "BtlSet": 2037, "AttrFirstRwd": 4801, "AttrRepeatRwd": 4401, "OtherExp": 2492, "OtherGold": 127, "TodayExp": 4984, "TodayGold": 254},
	{"Id": 65, "DungeonType": 7, "Name": 170065, "Stage": 5, "ReqTicket": 3, "TryLimit": 3, "BossChar": 2030, "Bg": "UI-#/AttrDungeon/Bg/Bg_Btl_AttrDungeon_Fire", "BtlSet": 2038, "AttrFirstRwd": 4802, "AttrRepeatRwd": 4402, "OtherExp": 3205, "OtherGold": 139, "TodayExp": 6410, "TodayGold": 278},
	{"Id": 66, "DungeonType": 7, "Name": 170066, "Stage": 6, "ReqTicket": 3, "TryLimit": 3, "BossChar": 2039, "Bg": "UI-#/AttrDungeon/Bg/Bg_Btl_AttrDungeon_Fire", "BtlSet": 2038, "AttrFirstRwd": 4802, "AttrRepeatRwd": 4402, "OtherExp": 4026, "OtherGold": 151, "TodayExp": 8052, "TodayGold": 302},
	{"Id": 67, "DungeonType": 7, "Name": 170067, "Stage": 7, "ReqTicket": 4, "TryLimit": 3, "BossChar": 2040, "Bg": "UI-#/AttrDungeon/Bg/Bg_Btl_AttrDungeon_Fire", "BtlSet": 2039, "AttrFirstRwd": 4803, "AttrRepeatRwd": 4403, "OtherExp": 6000, "OtherGold": 176, "TodayExp": 12000, "TodayGold": 352},
	{"Id": 68, "DungeonType": 7, "Name": 170068, "Stage": 8, "ReqTicket": 4, "TryLimit": 3, "BossChar": 2007, "Bg": "UI-#/AttrDungeon/Bg/Bg_Btl_AttrDungeon_Fire", "BtlSet": 2039, "AttrFirstRwd": 4803, "AttrRepeatRwd": 4403, "OtherExp": 6655, "OtherGold": 202, "TodayExp": 13310, "TodayGold": 404},
	{"Id": 69, "DungeonType": 7, "Name": 170069, "Stage": 9, "ReqTicket": 5, "TryLimit": 3, "BossChar": 2014, "Bg": "UI-#/AttrDungeon/Bg/Bg_Btl_AttrDungeon_Fire", "BtlSet": 2040, "AttrFirstRwd": 4804, "AttrRepeatRwd": 4404, "OtherExp": 7343, "OtherGold": 215, "TodayExp": 14686, "TodayGold": 430},
	{"Id": 70, "DungeonType": 7, "Name": 170070, "Stage": 10, "ReqTicket": 5, "TryLimit": 3, "BossChar": 2015, "Bg": "UI-#/AttrDungeon/Bg/Bg_Btl_AttrDungeon_Fire", "BtlSet": 2041, "AttrFirstRwd": 4804, "AttrRepeatRwd": 4404, "OtherExp": 8823, "OtherGold": 229, "TodayExp": 17646, "TodayGold": 458}
]"
