TextAsset Base
	string m_Name = "Edu"
	string m_Script = "[
	{"Id": 1, "Name": 1401, "EduStat":[1, 48], "StatVal":[47, 0.003], "ItemMat": 20, "EduVoice": "_0201"},
	{"Id": 2, "Name": 1402, "EduStat":[6, 15], "StatVal":[0.015, 0.008], "ItemMat": 21, "EduVoice": "_0206"},
	{"Id": 3, "Name": 1403, "EduStat":[2, 52], "StatVal":[51, 0.001], "ItemMat": 23, "EduVoice": "_0205"},
	{"Id": 4, "Name": 1404, "EduStat":[12, 50], "StatVal":[0.009, 0.003], "ItemMat": 22, "EduVoice": "_0204"},
	{"Id": 5, "Name": 1405, "EduStat":[3, 46], "StatVal":[55, 0.014], "ItemMat": 24, "EduVoice": "_0203"},
	{"Id": 6, "Name": 1406, "EduStat":[4, 20], "StatVal":[46, 0.008], "ItemMat": 25, "EduVoice": "_0202"}
]"
