TextAsset Base
	string m_Name = "EventMenu"
	string m_Script = "[
	{"Id": 1, "BtnName": 50020001, "BtnIcon": 9300, "BtlName": 50090001, "BtlDesc": 50100001, "TradeName": 50110001, "TradeType": 8, "TradePar": 1017, "TradeDesc": 50120001, "ScenrioName": 50130001}
]"
