TextAsset Base
	string m_Name = "EventShopItem"
	string m_Script = "[
	{"Id": 78, "EventShop": 8, "RwdElement": 50087, "CostType": 5, "CostItem": 95, "ReqVal": 50, "BuyDailyMax": 0, "BuyEventMax": 3},
	{"Id": 79, "EventShop": 8, "RwdElement": 50088, "CostType": 5, "CostItem": 95, "ReqVal": 80, "BuyDailyMax": 0, "BuyEventMax": 10},
	{"Id": 80, "EventShop": 8, "RwdElement": 50089, "CostType": 5, "CostItem": 95, "ReqVal": 20, "BuyDailyMax": 0, "BuyEventMax": 20},
	{"Id": 81, "EventShop": 8, "RwdElement": 50090, "CostType": 5, "CostItem": 95, "ReqVal": 30, "BuyDailyMax": 0, "BuyEventMax": 10},
	{"Id": 82, "EventShop": 8, "RwdElement": 50091, "CostType": 5, "CostItem": 95, "ReqVal": 20, "BuyDailyMax": 0, "BuyEventMax": 100},
	{"Id": 83, "EventShop": 8, "RwdElement": 50092, "CostType": 5, "CostItem": 95, "ReqVal": 30, "BuyDailyMax": 0, "BuyEventMax": 40},
	{"Id": 84, "EventShop": 8, "RwdElement": 50093, "CostType": 5, "CostItem": 95, "ReqVal": 20, "BuyDailyMax": 0, "BuyEventMax": 20},
	{"Id": 85, "EventShop": 8, "RwdElement": 50094, "CostType": 5, "CostItem": 95, "ReqVal": 50, "BuyDailyMax": 0, "BuyEventMax": 20},
	{"Id": 86, "EventShop": 8, "RwdElement": 50095, "CostType": 5, "CostItem": 95, "ReqVal": 30, "BuyDailyMax": 0, "BuyEventMax": 100},
	{"Id": 87, "EventShop": 8, "RwdElement": 50096, "CostType": 5, "CostItem": 95, "ReqVal": 10, "BuyDailyMax": 0, "BuyEventMax": 10},
	{"Id": 88, "EventShop": 8, "RwdElement": 50097, "CostType": 5, "CostItem": 95, "ReqVal": 3, "BuyDailyMax": 0, "BuyEventMax": 0},
	{"Id": 89, "EventShop": 9, "RwdElement": 50131, "CostType": 5, "CostItem": 98, "ReqVal": 80, "BuyDailyMax": 0, "BuyEventMax": 10},
	{"Id": 90, "EventShop": 9, "RwdElement": 50132, "CostType": 5, "CostItem": 98, "ReqVal": 20, "BuyDailyMax": 0, "BuyEventMax": 50},
	{"Id": 91, "EventShop": 9, "RwdElement": 50133, "CostType": 5, "CostItem": 98, "ReqVal": 15, "BuyDailyMax": 0, "BuyEventMax": 200},
	{"Id": 92, "EventShop": 9, "RwdElement": 50134, "CostType": 5, "CostItem": 98, "ReqVal": 15, "BuyDailyMax": 0, "BuyEventMax": 50},
	{"Id": 93, "EventShop": 9, "RwdElement": 50135, "CostType": 5, "CostItem": 98, "ReqVal": 20, "BuyDailyMax": 0, "BuyEventMax": 50},
	{"Id": 94, "EventShop": 9, "RwdElement": 50136, "CostType": 5, "CostItem": 98, "ReqVal": 20, "BuyDailyMax": 0, "BuyEventMax": 40},
	{"Id": 95, "EventShop": 9, "RwdElement": 50137, "CostType": 5, "CostItem": 98, "ReqVal": 25, "BuyDailyMax": 0, "BuyEventMax": 20},
	{"Id": 96, "EventShop": 9, "RwdElement": 50138, "CostType": 5, "CostItem": 98, "ReqVal": 20, "BuyDailyMax": 0, "BuyEventMax": 50},
	{"Id": 97, "EventShop": 9, "RwdElement": 50139, "CostType": 5, "CostItem": 98, "ReqVal": 30, "BuyDailyMax": 0, "BuyEventMax": 100},
	{"Id": 98, "EventShop": 9, "RwdElement": 50140, "CostType": 5, "CostItem": 98, "ReqVal": 3, "BuyDailyMax": 0, "BuyEventMax": 0},
	{"Id": 99, "EventShop": 10, "RwdElement": 50173, "CostType": 5, "CostItem": 100, "ReqVal": 500, "BuyDailyMax": 0, "BuyEventMax": 1},
	{"Id": 100, "EventShop": 10, "RwdElement": 50174, "CostType": 5, "CostItem": 100, "ReqVal": 80, "BuyDailyMax": 0, "BuyEventMax": 10},
	{"Id": 101, "EventShop": 10, "RwdElement": 50175, "CostType": 5, "CostItem": 100, "ReqVal": 50, "BuyDailyMax": 0, "BuyEventMax": 20},
	{"Id": 102, "EventShop": 10, "RwdElement": 50176, "CostType": 5, "CostItem": 100, "ReqVal": 30, "BuyDailyMax": 0, "BuyEventMax": 80},
	{"Id": 103, "EventShop": 10, "RwdElement": 50177, "CostType": 5, "CostItem": 100, "ReqVal": 50, "BuyDailyMax": 0, "BuyEventMax": 60},
	{"Id": 104, "EventShop": 10, "RwdElement": 50178, "CostType": 5, "CostItem": 100, "ReqVal": 30, "BuyDailyMax": 0, "BuyEventMax": 30},
	{"Id": 105, "EventShop": 10, "RwdElement": 50179, "CostType": 5, "CostItem": 100, "ReqVal": 20, "BuyDailyMax": 0, "BuyEventMax": 20},
	{"Id": 106, "EventShop": 10, "RwdElement": 50180, "CostType": 5, "CostItem": 100, "ReqVal": 15, "BuyDailyMax": 0, "BuyEventMax": 30},
	{"Id": 107, "EventShop": 10, "RwdElement": 50181, "CostType": 5, "CostItem": 100, "ReqVal": 25, "BuyDailyMax": 0, "BuyEventMax": 30},
	{"Id": 108, "EventShop": 10, "RwdElement": 50182, "CostType": 5, "CostItem": 100, "ReqVal": 10, "BuyDailyMax": 0, "BuyEventMax": 100},
	{"Id": 109, "EventShop": 10, "RwdElement": 50183, "CostType": 5, "CostItem": 100, "ReqVal": 10, "BuyDailyMax": 0, "BuyEventMax": 0},
	{"Id": 110, "EventShop": 11, "RwdElement": 50205, "CostType": 5, "CostItem": 103, "ReqVal": 80, "BuyDailyMax": 0, "BuyEventMax": 10},
	{"Id": 111, "EventShop": 11, "RwdElement": 50206, "CostType": 5, "CostItem": 103, "ReqVal": 20, "BuyDailyMax": 0, "BuyEventMax": 50},
	{"Id": 112, "EventShop": 11, "RwdElement": 50207, "CostType": 5, "CostItem": 103, "ReqVal": 15, "BuyDailyMax": 0, "BuyEventMax": 200},
	{"Id": 113, "EventShop": 11, "RwdElement": 50208, "CostType": 5, "CostItem": 103, "ReqVal": 15, "BuyDailyMax": 0, "BuyEventMax": 50},
	{"Id": 114, "EventShop": 11, "RwdElement": 50209, "CostType": 5, "CostItem": 103, "ReqVal": 20, "BuyDailyMax": 0, "BuyEventMax": 50},
	{"Id": 115, "EventShop": 11, "RwdElement": 50210, "CostType": 5, "CostItem": 103, "ReqVal": 20, "BuyDailyMax": 0, "BuyEventMax": 40},
	{"Id": 116, "EventShop": 11, "RwdElement": 50211, "CostType": 5, "CostItem": 103, "ReqVal": 25, "BuyDailyMax": 0, "BuyEventMax": 20},
	{"Id": 117, "EventShop": 11, "RwdElement": 50212, "CostType": 5, "CostItem": 103, "ReqVal": 20, "BuyDailyMax": 0, "BuyEventMax": 50},
	{"Id": 118, "EventShop": 11, "RwdElement": 50213, "CostType": 5, "CostItem": 103, "ReqVal": 30, "BuyDailyMax": 0, "BuyEventMax": 100},
	{"Id": 119, "EventShop": 11, "RwdElement": 50214, "CostType": 5, "CostItem": 103, "ReqVal": 3, "BuyDailyMax": 0, "BuyEventMax": 0},
	{"Id": 120, "EventShop": 12, "RwdElement": 50235, "CostType": 5, "CostItem": 104, "ReqVal": 60, "BuyDailyMax": 0, "BuyEventMax": 160},
	{"Id": 121, "EventShop": 12, "RwdElement": 50236, "CostType": 5, "CostItem": 104, "ReqVal": 80, "BuyDailyMax": 0, "BuyEventMax": 10},
	{"Id": 122, "EventShop": 12, "RwdElement": 50237, "CostType": 5, "CostItem": 104, "ReqVal": 30, "BuyDailyMax": 0, "BuyEventMax": 20},
	{"Id": 123, "EventShop": 12, "RwdElement": 50238, "CostType": 5, "CostItem": 104, "ReqVal": 30, "BuyDailyMax": 0, "BuyEventMax": 80},
	{"Id": 124, "EventShop": 12, "RwdElement": 50239, "CostType": 5, "CostItem": 104, "ReqVal": 40, "BuyDailyMax": 0, "BuyEventMax": 50},
	{"Id": 125, "EventShop": 12, "RwdElement": 50240, "CostType": 5, "CostItem": 104, "ReqVal": 10, "BuyDailyMax": 0, "BuyEventMax": 30},
	{"Id": 126, "EventShop": 12, "RwdElement": 50241, "CostType": 5, "CostItem": 104, "ReqVal": 25, "BuyDailyMax": 0, "BuyEventMax": 30},
	{"Id": 127, "EventShop": 12, "RwdElement": 50242, "CostType": 5, "CostItem": 104, "ReqVal": 8, "BuyDailyMax": 0, "BuyEventMax": 30},
	{"Id": 128, "EventShop": 12, "RwdElement": 50243, "CostType": 5, "CostItem": 104, "ReqVal": 5, "BuyDailyMax": 0, "BuyEventMax": 50},
	{"Id": 129, "EventShop": 12, "RwdElement": 50244, "CostType": 5, "CostItem": 104, "ReqVal": 30, "BuyDailyMax": 0, "BuyEventMax": 50},
	{"Id": 130, "EventShop": 12, "RwdElement": 50245, "CostType": 5, "CostItem": 104, "ReqVal": 5, "BuyDailyMax": 0, "BuyEventMax": 0}
]"
