TextAsset Base
	string m_Name = "GachaOnce"
	string m_Script = "[
	{"Id": 2, "RwdGrp": 4008, "MultiBonusRwdFix": 6001, "UsePeriod": 1, "StartAt": "2020-07-28 10:30:00", "EndAt": "2020-07-29 10:30:00", "CostType": 10, "MultiCostVal": 1000, "MultiCnt": 10, "Name": 5000402, "Desc": 5000502, "Icon": "Sprite/Gacha/Gacha_Banner_Normal3", "Prefab": "UI-#/Gacha/Gacha_Once_Period"},
	{"Id": 4, "RwdGrp": 4007, "MultiBonusRwdFix": 6000, "UsePeriod": 0, "StartAt": "", "EndAt": "", "CostType": 10, "MultiCostVal": 1000, "MultiCnt": 10, "Name": 5000404, "Desc": 5000504, "Icon": "Sprite/Gacha/Gacha_Banner_Normal2", "Prefab": "UI-#/Gacha/Gacha_Once_Newbie"}
]"
