TextAsset Base
	string m_Name = "GachaAd"
	string m_Script = "[
	{"Id": 1, "Use": 1, "AdView": true, "RwdGrp": 4000, "BuyMax": 1, "CoolTime": 10800, "Name": 5000001, "Desc": 5000101, "Icon": "Sprite/Gacha/Gacha_Banner_Ad2", "Prefab": "UI-#/Gacha/Gacha_AD"},
	{"Id": 3, "Use": 1, "AdView": true, "RwdGrp": 4006, "BuyMax": 1, "CoolTime": 28800, "Name": 5000003, "Desc": 5000103, "Icon": "Sprite/Gacha/Gacha_Banner_Ad2", "Prefab": "UI-#/Gacha/Gacha_AD2"},
	{"Id": 4, "Use": 1, "AdView": false, "RwdGrp": 4001, "BuyMax": 1, "CoolTime": 28800, "Name": 5000004, "Desc": 5000104, "Icon": "Sprite/Gacha/Gacha_Banner_Ad2", "Prefab": "UI-#/Gacha/Gacha_Free"}
]"
