TextAsset Base
	string m_Name = "MissionGrp"
	string m_Script = "[
	{"Id": 1, "LvMin": 1, "LvMax": 35, "MaxPoint": 100, "MissionPoint":[20, 40, 60, 80, 100], "PointRwdFix":[201, 202, 203, 204, 205], "RwdGrade":[1, 2, 3, 4, 5]},
	{"Id": 2, "LvMin": 35, "LvMax": 99, "MaxPoint": 100, "MissionPoint":[20, 40, 60, 80, 100], "PointRwdFix":[206, 207, 208, 209, 210], "RwdGrade":[1, 2, 3, 4, 5]}
]"
