TextAsset Base
	string m_Name = "PowerUpContents"
	string m_Script = "[
	{"Id": 1, "Name": 40001001, "Desc": 40001052, "Icon": 9300, "Shortcut": 6},
	{"Id": 2, "Name": 40001002, "Desc": 40001053, "Icon": 9301, "Shortcut": 7},
	{"Id": 3, "Name": 40001003, "Desc": 40001054, "Icon": 9302, "Shortcut": 7},
	{"Id": 4, "Name": 40001004, "Desc": 40001055, "Icon": 9303, "Shortcut": 7},
	{"Id": 5, "Name": 40001005, "Desc": 40001056, "Icon": 9304, "Shortcut": 26},
	{"Id": 6, "Name": 40001006, "Desc": 40001057, "Icon": 9305, "Shortcut": 9}
]"
