TextAsset Base
	string m_Name = "ShopResource"
	string m_Script = "[
	{"Id": 4001, "ShopTab": 2, "RwdElement": 127, "CostType": 5, "CostItem": 55, "ReqVal": 20},
	{"Id": 4002, "ShopTab": 2, "RwdElement": 128, "CostType": 5, "CostItem": 55, "ReqVal": 20},
	{"Id": 4003, "ShopTab": 2, "RwdElement": 129, "CostType": 5, "CostItem": 55, "ReqVal": 20},
	{"Id": 4004, "ShopTab": 2, "RwdElement": 130, "CostType": 5, "CostItem": 55, "ReqVal": 20},
	{"Id": 4005, "ShopTab": 2, "RwdElement": 131, "CostType": 5, "CostItem": 55, "ReqVal": 20},
	{"Id": 4006, "ShopTab": 2, "RwdElement": 132, "CostType": 5, "CostItem": 55, "ReqVal": 20},
	{"Id": 4007, "ShopTab": 2, "RwdElement": 133, "CostType": 5, "CostItem": 55, "ReqVal": 20},
	{"Id": 4008, "ShopTab": 2, "RwdElement": 134, "CostType": 5, "CostItem": 55, "ReqVal": 20},
	{"Id": 4009, "ShopTab": 2, "RwdElement": 135, "CostType": 5, "CostItem": 55, "ReqVal": 20},
	{"Id": 4010, "ShopTab": 2, "RwdElement": 136, "CostType": 5, "CostItem": 55, "ReqVal": 20},
	{"Id": 4011, "ShopTab": 2, "RwdElement": 137, "CostType": 5, "CostItem": 55, "ReqVal": 20},
	{"Id": 4012, "ShopTab": 2, "RwdElement": 138, "CostType": 5, "CostItem": 55, "ReqVal": 20},
	{"Id": 4013, "ShopTab": 2, "RwdElement": 139, "CostType": 5, "CostItem": 55, "ReqVal": 20},
	{"Id": 4014, "ShopTab": 2, "RwdElement": 140, "CostType": 5, "CostItem": 55, "ReqVal": 20},
	{"Id": 4015, "ShopTab": 2, "RwdElement": 141, "CostType": 5, "CostItem": 55, "ReqVal": 20},
	{"Id": 8000, "ShopTab": 11, "RwdElement": 6301, "CostType": 11, "CostItem": 0, "ReqVal": 10},
	{"Id": 8001, "ShopTab": 11, "RwdElement": 6302, "CostType": 11, "CostItem": 0, "ReqVal": 20},
	{"Id": 8002, "ShopTab": 11, "RwdElement": 6303, "CostType": 11, "CostItem": 0, "ReqVal": 45},
	{"Id": 8003, "ShopTab": 11, "RwdElement": 6308, "CostType": 11, "CostItem": 0, "ReqVal": 2},
	{"Id": 8004, "ShopTab": 11, "RwdElement": 6309, "CostType": 11, "CostItem": 0, "ReqVal": 10},
	{"Id": 8005, "ShopTab": 11, "RwdElement": 6310, "CostType": 11, "CostItem": 0, "ReqVal": 20},
	{"Id": 8006, "ShopTab": 11, "RwdElement": 6312, "CostType": 11, "CostItem": 0, "ReqVal": 2},
	{"Id": 8007, "ShopTab": 11, "RwdElement": 6313, "CostType": 11, "CostItem": 0, "ReqVal": 2},
	{"Id": 8008, "ShopTab": 11, "RwdElement": 6314, "CostType": 11, "CostItem": 0, "ReqVal": 5},
	{"Id": 8009, "ShopTab": 11, "RwdElement": 6315, "CostType": 11, "CostItem": 0, "ReqVal": 15},
	{"Id": 8010, "ShopTab": 11, "RwdElement": 6316, "CostType": 11, "CostItem": 0, "ReqVal": 45},
	{"Id": 8011, "ShopTab": 11, "RwdElement": 6317, "CostType": 11, "CostItem": 0, "ReqVal": 1},
	{"Id": 8012, "ShopTab": 11, "RwdElement": 6318, "CostType": 11, "CostItem": 0, "ReqVal": 2},
	{"Id": 8013, "ShopTab": 11, "RwdElement": 6319, "CostType": 11, "CostItem": 0, "ReqVal": 6},
	{"Id": 8014, "ShopTab": 11, "RwdElement": 6320, "CostType": 11, "CostItem": 0, "ReqVal": 20},
	{"Id": 8015, "ShopTab": 11, "RwdElement": 6321, "CostType": 11, "CostItem": 0, "ReqVal": 4}
]"
