TextAsset Base
	string m_Name = "TimeMission"
	string m_Script = "[
	{"Id": 499, "StartAt": "2021-02-02 01:00:00", "EndAt": "2021-02-03 01:00:00", "Type": 1, "TotalCount": 3, "DailyCountMax": 3, "RwdGrp": 7000},
	{"Id": 500, "StartAt": "2021-02-03 01:00:00", "EndAt": "2021-02-04 01:00:00", "Type": 3, "TotalCount": 5, "DailyCountMax": 5, "RwdGrp": 7001},
	{"Id": 501, "StartAt": "2021-02-04 01:00:00", "EndAt": "2021-02-05 01:00:00", "Type": 8, "TotalCount": 3, "DailyCountMax": 3, "RwdGrp": 7001},
	{"Id": 502, "StartAt": "2021-02-05 01:00:00", "EndAt": "2021-02-06 01:00:00", "Type": 7, "TotalCount": 3, "DailyCountMax": 3, "RwdGrp": 7001},
	{"Id": 503, "StartAt": "2021-02-06 01:00:00", "EndAt": "2021-02-07 01:00:00", "Type": 2, "TotalCount": 3, "DailyCountMax": 3, "RwdGrp": 7001},
	{"Id": 504, "StartAt": "2021-02-07 01:00:00", "EndAt": "2021-02-08 01:00:00", "Type": 6, "TotalCount": 3, "DailyCountMax": 3, "RwdGrp": 7000},
	{"Id": 505, "StartAt": "2021-02-08 01:00:00", "EndAt": "2021-02-09 01:00:00", "Type": 5, "TotalCount": 2, "DailyCountMax": 2, "RwdGrp": 7000},
	{"Id": 527, "StartAt": "2021-02-02 01:00:00", "EndAt": "2021-02-03 01:00:00", "Type": 2, "TotalCount": 3, "DailyCountMax": 3, "RwdGrp": 7001},
	{"Id": 528, "StartAt": "2021-02-03 01:00:00", "EndAt": "2021-02-04 01:00:00", "Type": 6, "TotalCount": 3, "DailyCountMax": 3, "RwdGrp": 7000},
	{"Id": 529, "StartAt": "2021-02-04 01:00:00", "EndAt": "2021-02-05 01:00:00", "Type": 5, "TotalCount": 2, "DailyCountMax": 2, "RwdGrp": 7000},
	{"Id": 530, "StartAt": "2021-02-05 01:00:00", "EndAt": "2021-02-06 01:00:00", "Type": 1, "TotalCount": 3, "DailyCountMax": 3, "RwdGrp": 7000},
	{"Id": 531, "StartAt": "2021-02-06 01:00:00", "EndAt": "2021-02-07 01:00:00", "Type": 3, "TotalCount": 5, "DailyCountMax": 5, "RwdGrp": 7001},
	{"Id": 532, "StartAt": "2021-02-07 01:00:00", "EndAt": "2021-02-08 01:00:00", "Type": 8, "TotalCount": 3, "DailyCountMax": 3, "RwdGrp": 7001},
	{"Id": 533, "StartAt": "2021-02-08 01:00:00", "EndAt": "2021-02-09 01:00:00", "Type": 7, "TotalCount": 3, "DailyCountMax": 3, "RwdGrp": 7001},
	{"Id": 534, "StartAt": "2021-02-09 01:00:00", "EndAt": "2021-02-10 01:00:00", "Type": 2, "TotalCount": 3, "DailyCountMax": 3, "RwdGrp": 7001},
	{"Id": 535, "StartAt": "2021-02-10 01:00:00", "EndAt": "2021-02-11 01:00:00", "Type": 6, "TotalCount": 3, "DailyCountMax": 3, "RwdGrp": 7000},
	{"Id": 536, "StartAt": "2021-02-11 01:00:00", "EndAt": "2021-02-12 01:00:00", "Type": 5, "TotalCount": 2, "DailyCountMax": 2, "RwdGrp": 7000},
	{"Id": 537, "StartAt": "2021-02-12 01:00:00", "EndAt": "2021-02-13 01:00:00", "Type": 1, "TotalCount": 3, "DailyCountMax": 3, "RwdGrp": 7000},
	{"Id": 538, "StartAt": "2021-02-13 01:00:00", "EndAt": "2021-02-14 01:00:00", "Type": 3, "TotalCount": 5, "DailyCountMax": 5, "RwdGrp": 7001},
	{"Id": 539, "StartAt": "2021-02-14 01:00:00", "EndAt": "2021-02-15 01:00:00", "Type": 8, "TotalCount": 3, "DailyCountMax": 3, "RwdGrp": 7001},
	{"Id": 540, "StartAt": "2021-02-15 01:00:00", "EndAt": "2021-02-16 01:00:00", "Type": 7, "TotalCount": 3, "DailyCountMax": 3, "RwdGrp": 7001},
	{"Id": 541, "StartAt": "2021-02-16 01:00:00", "EndAt": "2021-02-17 01:00:00", "Type": 2, "TotalCount": 3, "DailyCountMax": 3, "RwdGrp": 7001},
	{"Id": 542, "StartAt": "2021-02-17 01:00:00", "EndAt": "2021-02-18 01:00:00", "Type": 6, "TotalCount": 3, "DailyCountMax": 3, "RwdGrp": 7000},
	{"Id": 543, "StartAt": "2021-02-18 01:00:00", "EndAt": "2021-02-19 01:00:00", "Type": 5, "TotalCount": 2, "DailyCountMax": 2, "RwdGrp": 7000},
	{"Id": 544, "StartAt": "2021-02-19 01:00:00", "EndAt": "2021-02-20 01:00:00", "Type": 1, "TotalCount": 3, "DailyCountMax": 3, "RwdGrp": 7000},
	{"Id": 545, "StartAt": "2021-02-20 01:00:00", "EndAt": "2021-02-21 01:00:00", "Type": 3, "TotalCount": 5, "DailyCountMax": 5, "RwdGrp": 7001},
	{"Id": 546, "StartAt": "2021-02-21 01:00:00", "EndAt": "2021-02-22 01:00:00", "Type": 8, "TotalCount": 3, "DailyCountMax": 3, "RwdGrp": 7001},
	{"Id": 547, "StartAt": "2021-02-22 01:00:00", "EndAt": "2021-02-23 01:00:00", "Type": 7, "TotalCount": 3, "DailyCountMax": 3, "RwdGrp": 7001},
	{"Id": 548, "StartAt": "2021-02-23 01:00:00", "EndAt": "2021-02-24 01:00:00", "Type": 2, "TotalCount": 3, "DailyCountMax": 3, "RwdGrp": 7001},
	{"Id": 549, "StartAt": "2021-02-24 01:00:00", "EndAt": "2021-02-25 01:00:00", "Type": 6, "TotalCount": 3, "DailyCountMax": 3, "RwdGrp": 7000},
	{"Id": 550, "StartAt": "2021-02-25 01:00:00", "EndAt": "2021-02-26 01:00:00", "Type": 5, "TotalCount": 2, "DailyCountMax": 2, "RwdGrp": 7000},
	{"Id": 551, "StartAt": "2021-02-26 01:00:00", "EndAt": "2021-02-27 01:00:00", "Type": 1, "TotalCount": 3, "DailyCountMax": 3, "RwdGrp": 7000},
	{"Id": 552, "StartAt": "2021-02-27 01:00:00", "EndAt": "2021-02-28 01:00:00", "Type": 3, "TotalCount": 5, "DailyCountMax": 5, "RwdGrp": 7001},
	{"Id": 553, "StartAt": "2021-02-28 01:00:00", "EndAt": "2021-03-01 01:00:00", "Type": 8, "TotalCount": 3, "DailyCountMax": 3, "RwdGrp": 7001},
	{"Id": 554, "StartAt": "2021-03-01 01:00:00", "EndAt": "2021-03-02 01:00:00", "Type": 7, "TotalCount": 3, "DailyCountMax": 3, "RwdGrp": 7001},
	{"Id": 555, "StartAt": "2021-03-02 01:00:00", "EndAt": "2021-03-03 01:00:00", "Type": 2, "TotalCount": 3, "DailyCountMax": 3, "RwdGrp": 7001},
	{"Id": 556, "StartAt": "2021-03-03 01:00:00", "EndAt": "2021-03-04 01:00:00", "Type": 6, "TotalCount": 3, "DailyCountMax": 3, "RwdGrp": 7000},
	{"Id": 557, "StartAt": "2021-03-04 01:00:00", "EndAt": "2021-03-05 01:00:00", "Type": 5, "TotalCount": 2, "DailyCountMax": 2, "RwdGrp": 7000},
	{"Id": 558, "StartAt": "2021-03-05 01:00:00", "EndAt": "2021-03-06 01:00:00", "Type": 1, "TotalCount": 3, "DailyCountMax": 3, "RwdGrp": 7000},
	{"Id": 559, "StartAt": "2021-03-06 01:00:00", "EndAt": "2021-03-07 01:00:00", "Type": 3, "TotalCount": 5, "DailyCountMax": 5, "RwdGrp": 7001},
	{"Id": 560, "StartAt": "2021-03-07 01:00:00", "EndAt": "2021-03-08 01:00:00", "Type": 8, "TotalCount": 3, "DailyCountMax": 3, "RwdGrp": 7001},
	{"Id": 561, "StartAt": "2021-03-08 01:00:00", "EndAt": "2021-03-09 01:00:00", "Type": 7, "TotalCount": 3, "DailyCountMax": 3, "RwdGrp": 7001},
	{"Id": 562, "StartAt": "2021-03-09 01:00:00", "EndAt": "2021-03-10 01:00:00", "Type": 2, "TotalCount": 3, "DailyCountMax": 3, "RwdGrp": 7001},
	{"Id": 563, "StartAt": "2021-03-10 01:00:00", "EndAt": "2021-03-11 01:00:00", "Type": 6, "TotalCount": 3, "DailyCountMax": 3, "RwdGrp": 7000},
	{"Id": 564, "StartAt": "2021-03-11 01:00:00", "EndAt": "2021-03-12 01:00:00", "Type": 5, "TotalCount": 2, "DailyCountMax": 2, "RwdGrp": 7000},
	{"Id": 565, "StartAt": "2021-03-12 01:00:00", "EndAt": "2021-03-13 01:00:00", "Type": 1, "TotalCount": 3, "DailyCountMax": 3, "RwdGrp": 7000},
	{"Id": 566, "StartAt": "2021-03-13 01:00:00", "EndAt": "2021-03-14 01:00:00", "Type": 3, "TotalCount": 5, "DailyCountMax": 5, "RwdGrp": 7001},
	{"Id": 567, "StartAt": "2021-03-14 01:00:00", "EndAt": "2021-03-15 01:00:00", "Type": 8, "TotalCount": 3, "DailyCountMax": 3, "RwdGrp": 7001},
	{"Id": 568, "StartAt": "2021-03-15 01:00:00", "EndAt": "2021-03-16 01:00:00", "Type": 7, "TotalCount": 3, "DailyCountMax": 3, "RwdGrp": 7001},
	{"Id": 569, "StartAt": "2021-02-09 01:00:00", "EndAt": "2021-02-10 01:00:00", "Type": 1, "TotalCount": 3, "DailyCountMax": 3, "RwdGrp": 7000},
	{"Id": 570, "StartAt": "2021-02-10 01:00:00", "EndAt": "2021-02-11 01:00:00", "Type": 3, "TotalCount": 5, "DailyCountMax": 5, "RwdGrp": 7001},
	{"Id": 571, "StartAt": "2021-02-11 01:00:00", "EndAt": "2021-02-12 01:00:00", "Type": 8, "TotalCount": 3, "DailyCountMax": 3, "RwdGrp": 7001},
	{"Id": 572, "StartAt": "2021-02-12 01:00:00", "EndAt": "2021-02-13 01:00:00", "Type": 7, "TotalCount": 3, "DailyCountMax": 3, "RwdGrp": 7001},
	{"Id": 573, "StartAt": "2021-02-13 01:00:00", "EndAt": "2021-02-14 01:00:00", "Type": 2, "TotalCount": 3, "DailyCountMax": 3, "RwdGrp": 7001},
	{"Id": 574, "StartAt": "2021-02-14 01:00:00", "EndAt": "2021-02-15 01:00:00", "Type": 6, "TotalCount": 3, "DailyCountMax": 3, "RwdGrp": 7000},
	{"Id": 575, "StartAt": "2021-02-15 01:00:00", "EndAt": "2021-02-16 01:00:00", "Type": 5, "TotalCount": 2, "DailyCountMax": 2, "RwdGrp": 7000},
	{"Id": 576, "StartAt": "2021-02-16 01:00:00", "EndAt": "2021-02-17 01:00:00", "Type": 1, "TotalCount": 3, "DailyCountMax": 3, "RwdGrp": 7000},
	{"Id": 577, "StartAt": "2021-02-17 01:00:00", "EndAt": "2021-02-18 01:00:00", "Type": 3, "TotalCount": 5, "DailyCountMax": 5, "RwdGrp": 7001},
	{"Id": 578, "StartAt": "2021-02-18 01:00:00", "EndAt": "2021-02-19 01:00:00", "Type": 8, "TotalCount": 3, "DailyCountMax": 3, "RwdGrp": 7001},
	{"Id": 579, "StartAt": "2021-02-19 01:00:00", "EndAt": "2021-02-20 01:00:00", "Type": 7, "TotalCount": 3, "DailyCountMax": 3, "RwdGrp": 7001},
	{"Id": 580, "StartAt": "2021-02-20 01:00:00", "EndAt": "2021-02-21 01:00:00", "Type": 2, "TotalCount": 3, "DailyCountMax": 3, "RwdGrp": 7001},
	{"Id": 581, "StartAt": "2021-02-21 01:00:00", "EndAt": "2021-02-22 01:00:00", "Type": 6, "TotalCount": 3, "DailyCountMax": 3, "RwdGrp": 7000},
	{"Id": 582, "StartAt": "2021-02-22 01:00:00", "EndAt": "2021-02-23 01:00:00", "Type": 5, "TotalCount": 2, "DailyCountMax": 2, "RwdGrp": 7000},
	{"Id": 583, "StartAt": "2021-02-23 01:00:00", "EndAt": "2021-02-24 01:00:00", "Type": 1, "TotalCount": 3, "DailyCountMax": 3, "RwdGrp": 7000},
	{"Id": 584, "StartAt": "2021-02-24 01:00:00", "EndAt": "2021-02-25 01:00:00", "Type": 3, "TotalCount": 5, "DailyCountMax": 5, "RwdGrp": 7001},
	{"Id": 585, "StartAt": "2021-02-25 01:00:00", "EndAt": "2021-02-26 01:00:00", "Type": 8, "TotalCount": 3, "DailyCountMax": 3, "RwdGrp": 7001},
	{"Id": 586, "StartAt": "2021-02-26 01:00:00", "EndAt": "2021-02-27 01:00:00", "Type": 7, "TotalCount": 3, "DailyCountMax": 3, "RwdGrp": 7001},
	{"Id": 587, "StartAt": "2021-02-27 01:00:00", "EndAt": "2021-02-28 01:00:00", "Type": 2, "TotalCount": 3, "DailyCountMax": 3, "RwdGrp": 7001},
	{"Id": 588, "StartAt": "2021-02-28 01:00:00", "EndAt": "2021-03-01 01:00:00", "Type": 6, "TotalCount": 3, "DailyCountMax": 3, "RwdGrp": 7000},
	{"Id": 589, "StartAt": "2021-03-01 01:00:00", "EndAt": "2021-03-02 01:00:00", "Type": 5, "TotalCount": 2, "DailyCountMax": 2, "RwdGrp": 7000},
	{"Id": 590, "StartAt": "2021-03-02 01:00:00", "EndAt": "2021-03-03 01:00:00", "Type": 1, "TotalCount": 3, "DailyCountMax": 3, "RwdGrp": 7000},
	{"Id": 591, "StartAt": "2021-03-03 01:00:00", "EndAt": "2021-03-04 01:00:00", "Type": 3, "TotalCount": 5, "DailyCountMax": 5, "RwdGrp": 7001},
	{"Id": 592, "StartAt": "2021-03-04 01:00:00", "EndAt": "2021-03-05 01:00:00", "Type": 8, "TotalCount": 3, "DailyCountMax": 3, "RwdGrp": 7001},
	{"Id": 593, "StartAt": "2021-03-05 01:00:00", "EndAt": "2021-03-06 01:00:00", "Type": 7, "TotalCount": 3, "DailyCountMax": 3, "RwdGrp": 7001},
	{"Id": 594, "StartAt": "2021-03-06 01:00:00", "EndAt": "2021-03-07 01:00:00", "Type": 2, "TotalCount": 3, "DailyCountMax": 3, "RwdGrp": 7001},
	{"Id": 595, "StartAt": "2021-03-07 01:00:00", "EndAt": "2021-03-08 01:00:00", "Type": 6, "TotalCount": 3, "DailyCountMax": 3, "RwdGrp": 7000},
	{"Id": 596, "StartAt": "2021-03-08 01:00:00", "EndAt": "2021-03-09 01:00:00", "Type": 5, "TotalCount": 2, "DailyCountMax": 2, "RwdGrp": 7000},
	{"Id": 597, "StartAt": "2021-03-09 01:00:00", "EndAt": "2021-03-10 01:00:00", "Type": 1, "TotalCount": 3, "DailyCountMax": 3, "RwdGrp": 7000},
	{"Id": 598, "StartAt": "2021-03-10 01:00:00", "EndAt": "2021-03-11 01:00:00", "Type": 3, "TotalCount": 5, "DailyCountMax": 5, "RwdGrp": 7001},
	{"Id": 599, "StartAt": "2021-03-11 01:00:00", "EndAt": "2021-03-12 01:00:00", "Type": 8, "TotalCount": 3, "DailyCountMax": 3, "RwdGrp": 7001},
	{"Id": 600, "StartAt": "2021-03-12 01:00:00", "EndAt": "2021-03-13 01:00:00", "Type": 7, "TotalCount": 3, "DailyCountMax": 3, "RwdGrp": 7001},
	{"Id": 601, "StartAt": "2021-03-13 01:00:00", "EndAt": "2021-03-14 01:00:00", "Type": 2, "TotalCount": 3, "DailyCountMax": 3, "RwdGrp": 7001},
	{"Id": 602, "StartAt": "2021-03-14 01:00:00", "EndAt": "2021-03-15 01:00:00", "Type": 6, "TotalCount": 3, "DailyCountMax": 3, "RwdGrp": 7000},
	{"Id": 603, "StartAt": "2021-03-15 01:00:00", "EndAt": "2021-03-16 01:00:00", "Type": 5, "TotalCount": 2, "DailyCountMax": 2, "RwdGrp": 7000}
]"
